<?xml version="1.0" encoding="UTF-8"?>
<svg width="1024px" height="1024px" viewBox="0 0 1024 1024" version="1.1" xmlns="http://www.w3.org/2000/svg" xmlns:xlink="http://www.w3.org/1999/xlink">
    <!-- Generator: Sketch 60 (88103) - https://sketch.com -->
    <title>Icon_1024x1024</title>
    <desc>Created with Sketch.</desc>
    <g id="Icon_1024x1024" stroke="none" stroke-width="1" fill="none" fill-rule="evenodd">
        <rect fill="#FFFFFF" x="0" y="0" width="1024" height="1024"></rect>
        <g id="help-circle" transform="translate(212.000000, 212.000000)" stroke="#000000" stroke-linecap="round" stroke-linejoin="round" stroke-width="60">
            <circle id="Oval" cx="300" cy="300" r="300"></circle>
            <path d="M212.7,210 C227.263106,168.601333 269.561509,143.74219 312.815289,151.161363 C356.06907,158.580536 387.665381,196.114588 387.600101,240 C387.600101,300 297.6,330 297.6,330" id="Path"></path>
            <line x1="300" y1="450" x2="300.3" y2="450" id="Path"></line>
        </g>
    </g>
</svg>